<svg width="77" height="68" viewBox="0 0 77 68" fill="none" xmlns="http://www.w3.org/2000/svg">
<path d="M21.8258 0.0617519C23.6375 -0.173232 25.5197 0.269712 27.0483 1.26604C28.4958 2.21303 29.6284 3.64525 30.1841 5.28544C30.9208 7.40969 30.6847 9.85234 29.5321 11.7863C28.6532 13.309 27.2304 14.5015 25.5914 15.1324C23.7832 15.8362 21.7106 15.8256 19.9095 15.1042C18.3022 14.4698 16.9087 13.2925 16.0405 11.7957C15.1581 10.2965 14.7774 8.49296 15.0383 6.76936C15.2321 5.15032 15.9994 3.62645 17.1038 2.43509C18.3515 1.14268 20.0364 0.267363 21.8258 0.0617519Z" fill="#830900"/>
<path d="M52.739 0.15316C54.5225 -0.20989 56.433 0.0826645 58.025 0.966203C59.6628 1.85562 60.9611 3.35481 61.6038 5.10544C62.1031 6.40842 62.1748 7.84535 61.9703 9.2153C61.5767 11.4512 60.1516 13.4732 58.1836 14.6C56.6585 15.4917 54.8245 15.8336 53.0809 15.5634C50.9661 15.2438 48.9969 14.016 47.8055 12.236C46.9807 11.0423 46.5178 9.61713 46.4415 8.1708C46.3698 6.325 46.9514 4.44631 48.111 3.00116C49.2425 1.53486 50.9238 0.51151 52.739 0.15316Z" fill="#830900"/>
<path d="M14.056 18.5349C15.3989 17.4376 17.1084 16.7585 18.8532 16.7679C21.4392 16.7643 24.0252 16.7679 26.61 16.7655C28.585 16.7314 30.5307 17.5656 31.9465 18.9262C33.4151 20.3373 34.2975 22.3452 34.3139 24.3849C34.3257 25.8864 34.3139 27.388 34.3198 28.8895C37.1267 28.886 39.9336 28.8942 42.7404 28.886C42.7404 27.4232 42.7381 25.9593 42.7416 24.4965C42.7146 22.5555 43.4959 20.6286 44.8224 19.2176C46.2852 17.6491 48.42 16.6927 50.576 16.7679C53.1232 16.7737 55.6716 16.7502 58.2188 16.7667C60.5122 16.7714 62.7563 17.9275 64.1533 19.7381C65.2413 21.1092 65.8229 22.8657 65.7994 24.614C65.8017 26.0391 65.8017 27.4631 65.7994 28.8871C67.6181 28.8907 69.4369 28.8883 71.2545 28.8895C72.0288 28.8989 72.8277 28.8202 73.5703 29.0963C75.3761 29.6426 76.7073 31.4273 76.7108 33.3154C76.7097 44.8378 76.7179 56.3614 76.7073 67.8839C75.6076 67.8768 74.5079 67.9003 73.4093 67.8686C73.4023 56.7809 73.4081 45.6944 73.407 34.6066C73.3882 34.1085 73.4927 33.568 73.2249 33.1157C72.9911 32.6598 72.4553 32.453 71.9653 32.4659C59.4184 32.4706 46.8703 32.4612 34.3233 32.4706C34.3069 35.18 34.3351 37.8894 34.308 40.5987C34.2434 42.5973 32.622 44.3737 30.6541 44.6745C30.6552 50.9521 30.6529 57.2309 30.6552 63.5085C30.667 64.6892 30.1982 65.89 29.3182 66.6913C28.5169 67.4891 27.3784 67.9027 26.2563 67.8956C24.2977 67.8921 22.3392 67.8944 20.3806 67.8944C19.5992 67.8874 18.8015 67.9543 18.0437 67.7229C16.2907 67.2541 14.9571 65.5622 14.9207 63.7458C14.9137 57.3895 14.9254 51.0343 14.9149 44.678C12.8693 44.3596 11.2045 42.4504 11.2538 40.3661C11.2526 37.7331 11.2585 35.1013 11.2515 32.4695C9.08373 32.4636 6.91601 32.4683 4.74828 32.4659C4.25834 32.453 3.72258 32.6598 3.48877 33.1157C3.22089 33.5668 3.32428 34.1085 3.30666 34.6066C3.30548 45.6944 3.31136 56.7809 3.30431 67.8686C2.20459 67.8991 1.10486 67.8768 0.00631536 67.8839C-0.00425891 56.4002 0.00514008 44.9166 0.000440408 33.4329C-0.0171834 32.2157 0.495082 31.0067 1.3657 30.1596C2.19989 29.3583 3.35013 28.8601 4.51448 28.8895C6.76092 28.8883 9.00736 28.8907 11.2538 28.8883C11.2573 27.3868 11.2515 25.8852 11.2562 24.3825C11.2703 22.1478 12.3371 19.9566 14.056 18.5349Z" fill="#ED3F3E"/>
</svg>
